<?xml version="1.0" encoding="utf-8"?>
<!-- Generator: Adobe Illustrator 21.0.2, SVG Export Plug-In . SVG Version: 6.00 Build 0)  -->
<svg version="1.1" id="Layer_1" xmlns="http://www.w3.org/2000/svg" xmlns:xlink="http://www.w3.org/1999/xlink" x="0px" y="0px"
	 viewBox="0 0 678.4 111.7" style="enable-background:new 0 0 678.4 111.7;" xml:space="preserve">
<style type="text/css">
	.st0{fill:#FFFFFF;}
</style>
<g id="XMLID_382_">
	<g id="XMLID_383_">
		<path id="XMLID_403_" class="st0" d="M0,49.4c0-13.8,11.5-25.6,28.2-25.6c16.9,0,28.3,11.9,28.3,25.6v24.2
			c0,5.9-4.8,10.6-10.6,10.6H41V51.7c0-9.4-5.3-14.8-12.8-14.8c-7.4,0-12.7,5.4-12.7,14.8v21.9c0,5.9-4.8,10.6-10.6,10.6H0V49.4z"/>
		<path id="XMLID_402_" class="st0" d="M650.1,23.3c-8.4,0-15.5,3-20.4,7.8c-5-4.8-12.1-7.8-20.6-7.8c-16.7,0-28.2,12.1-28.2,26.1
			v35.4h4.9c5.9,0,10.6-4.8,10.6-10.8V51.7c0-9.6,5.3-15.1,12.7-15.1c7.2,0,12.4,5.1,12.8,13.9v34.2h0h4.9h0
			c5.9,0,10.6-4.8,10.6-10.8V50.5c0.4-8.9,5.5-13.9,12.6-13.9c7.6,0,12.8,5.5,12.8,15.1v33.1h4.9c5.9,0,10.6-4.8,10.6-10.8V49.4
			C678.4,35.4,666.9,23.3,650.1,23.3z"/>
		<path id="XMLID_399_" class="st0" d="M118.9,76.6c-5.8,4.9-13.9,7.8-22.4,7.8c-18.3,0-33-13.3-33-30.4s13.4-30.4,31.7-30.4
			c18.3,0,30.2,13.3,30.2,30.4v4.4H78.8c2.1,7.7,9.5,13.1,17.8,13.1c2.6,0,4.9-0.4,7.2-1.4c4.3-1.8,9.2-0.7,12.2,2.8L118.9,76.6z
			 M109.4,46c-2.3-5.3-7.3-9.4-14.2-9.4c-6.8,0-12.3,3.7-15.1,9.4H109.4z"/>
		<path id="XMLID_398_" class="st0" d="M202.8,50.4c0-14.4,11-26.4,28.8-26.4v14.1c-7.7,0-13.1,4.7-13.1,14.2v21.1
			c0,6-4.8,11.1-10.8,11.1h-4.8V50.4z"/>
		<path id="XMLID_395_" class="st0" d="M238.9,0h4.9c5.8,0,10.4,4.7,10.4,10.4v19.4c3.3-2.9,9.1-6.2,16.3-6.2
			c16.6,0,29.4,13.7,29.4,30.6c0,17-13.7,30.8-30.9,30.6c-16.8-0.2-30.2-14.3-30.2-31.2V0z M269.5,70.3c8.6,0,15.5-6.9,15.5-15.5
			c0-8.6-6.9-15.5-15.5-15.5c-8.5,0-15.5,6.9-15.5,15.5C254,63.4,261.1,70.3,269.5,70.3"/>
		<path id="XMLID_394_" class="st0" d="M307.7,23.6h4.9c5.9,0,10.6,4.8,10.6,10.6v22c0,9.4,5.3,14.8,12.7,14.8
			c7.6,0,12.8-5.4,12.8-14.8V23.6h4.9c5.9,0,10.6,4.8,10.6,10.6v24.3c0,13.8-11.5,25.6-28.3,25.6c-16.7,0-28.2-11.9-28.2-25.6V23.6z
			"/>
		<path id="XMLID_391_" class="st0" d="M178.3,28.9c-4.1-3.3-9.6-5.4-15.4-5.4c-17.2,0-29.9,13.7-29.9,30.7
			c0,17,12.8,30.4,29.9,30.4c6.4,0,12.2-2.4,16.5-6.2v6.3h15.4V30.5c-2.1,1.4-4.6,2.2-7.3,2.2C184,32.7,180.7,31.3,178.3,28.9
			 M164,70.2c-8.7,0-15.7-6.9-15.7-15.5c0-8.6,7-15.5,15.7-15.5c8.6,0,15.7,6.9,15.7,15.5C179.7,63.3,172.6,70.2,164,70.2"/>
		<path id="XMLID_390_" class="st0" d="M412.3,23.6v32.8c0,9.4-5.3,14.8-12.8,14.8c-7.4,0-12.7-5.4-12.7-14.8V34.5
			c0-5.9-4.7-10.9-10.6-10.9h-4.9v35.1c0,13.7,11.4,25.6,28.1,25.6c4.7,0,10.6-2.7,12.8-5.7V81c0,7.4-4.7,13.6-11.3,16
			c-3.6,1.3-6,4.8-6,8.7l0,6l0,0c19.6,0.2,32.8-13.3,32.8-31V34.5c0-5.9-4.7-10.9-10.6-10.9H412.3z"/>
		<path id="XMLID_389_" class="st0" d="M482.6,84.8c-13.8,0-25.6-11.5-25.6-28.2c0-22.4,11.9-33.1,25.6-33.1l12.5,0
			c5.9,0,10.6,4.8,10.6,10.6V39l-18.7,0c-10.4,0-17,3.2-17,15.8c0,8.9,7,14.4,17.7,14.4l7.4,0c5.9,0,10.6,4.8,10.6,10.6v4.9
			L482.6,84.8z"/>
		<g id="XMLID_387_">
			<path id="XMLID_388_" class="st0" d="M445.1,95.8c10.7,0,10.7-16.7,0-16.7C434.3,79.1,434.3,95.8,445.1,95.8L445.1,95.8z"/>
		</g>
		<path id="XMLID_384_" class="st0" d="M543.4,23.4c-16.8,0-30.5,13.8-30.5,30.7c0,16.9,13.7,30.7,30.5,30.7
			c16.8,0,30.5-13.8,30.5-30.7C573.9,37.2,560.2,23.4,543.4,23.4z M543.4,70.5c-8.6,0-15.5-7-15.5-15.6s6.9-15.6,15.5-15.6
			s15.5,7,15.5,15.6S552,70.5,543.4,70.5z"/>
	</g>
</g>
</svg>
